uart.vcd
$date
	Fri Apr 05 09:49:34 2024
$end
$version
	Icarus Verilog
$end
$timescale
	1ps
$end
$scope module test $end
$var wire 8 ! char [7:0] $end
$var wire 1 " txd $end
$var wire 1 # busy $end
$var reg 1 $ clk $end
$var reg 1 % send $end
$scope module tx $end
$var wire 1 $ clk $end
$var wire 8 & data [7:0] $end
$var wire 1 % send $end
$var wire 1 # busy $end
$var wire 1 ' baud_clk $end
$var parameter 32 ( BAUD $end
$var parameter 8 ) CLKFREQ $end
$var reg 10 * buff [9:0] $end
$var reg 7 + clk_count [6:0] $end
$var reg 4 , len [3:0] $end
$var reg 1 " tx $end
$upscope $end
$upscope $end
$enddefinitions $end
$comment Show the parameter values. $end
$dumpall
b1000 )
b11100001000000000 (
$end
#0
$dumpvars
b0 ,
b0 +
b1111111111 *
0'
b10101010 &
x%
0$
1#
1"
b10101010 !
$end
#1000000000000
b1 +
1$
#2000000000000
0$
#3000000000000
b10 +
1$
#4000000000000
0$
#5000000000000
b11 +
1$
#6000000000000
0$
#7000000000000
b100 +
1$
#8000000000000
0$
#9000000000000
b101 +
1$
#10000000000000
0$
#11000000000000
b110 +
1$
#12000000000000
0$
#13000000000000
b111 +
1$
#14000000000000
0$
#15000000000000
b1000 +
1$
#16000000000000
0$
#17000000000000
b1001 +
1$
#18000000000000
0$
#19000000000000
b1010 +
1$
#20000000000000
0$
#21000000000000
b1011 +
1$
#22000000000000
0$
#23000000000000
b1100 +
1$
#24000000000000
0$
#25000000000000
b1101 +
1$
#26000000000000
0$
#27000000000000
b1110 +
1$
#28000000000000
0$
#29000000000000
b1111 +
1$
#30000000000000
0$
#31000000000000
b10000 +
1$
#32000000000000
0$
#33000000000000
b10001 +
1$
#34000000000000
0$
#35000000000000
b10010 +
1$
#36000000000000
0$
#37000000000000
b10011 +
1$
#38000000000000
0$
#39000000000000
b10100 +
1$
#40000000000000
0$
#41000000000000
b10101 +
1$
#42000000000000
0$
#43000000000000
b10110 +
1$
#44000000000000
0$
#45000000000000
b10111 +
1$
#46000000000000
0$
#47000000000000
b11000 +
1$
#48000000000000
0$
#49000000000000
b11001 +
1$
#50000000000000
0$
#51000000000000
b11010 +
1$
#52000000000000
0$
#53000000000000
b11011 +
1$
#54000000000000
0$
#55000000000000
b11100 +
1$
#56000000000000
0$
#57000000000000
b11101 +
1$
#58000000000000
0$
#59000000000000
b11110 +
1$
#60000000000000
0$
#61000000000000
b11111 +
1$
#62000000000000
0$
#63000000000000
b100000 +
1$
#64000000000000
0$
#65000000000000
b100001 +
1$
#66000000000000
0$
#67000000000000
b100010 +
1$
#68000000000000
0$
#69000000000000
b100011 +
1$
#70000000000000
0$
#71000000000000
b100100 +
1$
#72000000000000
0$
#73000000000000
b100101 +
1$
#74000000000000
0$
#75000000000000
b100110 +
1$
#76000000000000
0$
#77000000000000
b100111 +
1$
#78000000000000
0$
#79000000000000
b101000 +
1$
#80000000000000
0$
#81000000000000
b101001 +
1$
#82000000000000
0$
#83000000000000
b101010 +
1$
#84000000000000
0$
#85000000000000
b101011 +
1$
#86000000000000
0$
#87000000000000
b101100 +
1$
#88000000000000
0$
#89000000000000
b101101 +
1$
#90000000000000
0$
#91000000000000
b101110 +
1$
#92000000000000
0$
#93000000000000
b101111 +
1$
#94000000000000
0$
#95000000000000
b110000 +
1$
#96000000000000
0$
#97000000000000
b110001 +
1$
#98000000000000
0$
#99000000000000
b110010 +
1$
#100000000000000
0$
1%
#101000000000000
b110011 +
1$
#102000000000000
0$
#103000000000000
b110100 +
1$
#104000000000000
0$
#105000000000000
b110101 +
1$
#106000000000000
0$
#107000000000000
b110110 +
1$
#108000000000000
0$
#109000000000000
b110111 +
1$
#110000000000000
0$
#111000000000000
b111000 +
1$
#112000000000000
0$
#113000000000000
b111001 +
1$
#114000000000000
0$
#115000000000000
b111010 +
1$
#116000000000000
0$
#117000000000000
b111011 +
1$
#118000000000000
0$
#119000000000000
b111100 +
1$
#120000000000000
0$
#121000000000000
b111101 +
1$
#122000000000000
0$
#123000000000000
b111110 +
1$
#124000000000000
0$
#125000000000000
b111111 +
1$
#126000000000000
0$
#127000000000000
b1000000 +
1$
#128000000000000
0$
#129000000000000
b1000001 +
1$
#130000000000000
0$
#131000000000000
b1000010 +
1$
#132000000000000
0$
#133000000000000
b1000011 +
1$
#134000000000000
0$
#135000000000000
b1000100 +
1$
#136000000000000
0$
#137000000000000
b1000101 +
1$
#138000000000000
0$
#139000000000000
b1000110 +
1$
#140000000000000
0$
#141000000000000
b1000111 +
1$
#142000000000000
0$
#143000000000000
b1001000 +
1$
#144000000000000
0$
#145000000000000
b1001001 +
1$
#146000000000000
0$
#147000000000000
b1001010 +
1$
#148000000000000
0$
#149000000000000
b1001011 +
1$
#150000000000000
0$
#151000000000000
b1001100 +
1$
#152000000000000
0$
#153000000000000
b1001101 +
1$
#154000000000000
0$
#155000000000000
b1001110 +
1$
#156000000000000
0$
#157000000000000
b1001111 +
1$
#158000000000000
0$
#159000000000000
b1010000 +
1$
#160000000000000
0$
#161000000000000
b1010001 +
1$
#162000000000000
0$
#163000000000000
b1010010 +
1$
#164000000000000
0$
#165000000000000
b1010011 +
1$
#166000000000000
0$
#167000000000000
b1010100 +
1$
#168000000000000
0$
#169000000000000
b1010101 +
1$
#170000000000000
0$
#171000000000000
b1010110 +
1$
#172000000000000
0$
#173000000000000
b1010111 +
1$
#174000000000000
0$
#175000000000000
b1011000 +
1$
#176000000000000
0$
#177000000000000
b1011001 +
1$
#178000000000000
0$
#179000000000000
b1011010 +
1$
#180000000000000
0$
#181000000000000
b1011011 +
1$
#182000000000000
0$
#183000000000000
b1011100 +
1$
#184000000000000
0$
#185000000000000
b1011101 +
1$
#186000000000000
0$
#187000000000000
b1011110 +
1$
#188000000000000
0$
#189000000000000
b1011111 +
1$
#190000000000000
0$
#191000000000000
b1100000 +
1$
#192000000000000
0$
#193000000000000
b1100001 +
1$
#194000000000000
0$
#195000000000000
b1100010 +
1$
#196000000000000
0$
#197000000000000
b1100011 +
1$
#198000000000000
0$
#199000000000000
b1100100 +
1$
#200000000000000
0$
#201000000000000
b1100101 +
1$
#202000000000000
0$
#203000000000000
b1100110 +
1$
#204000000000000
0$
#205000000000000
b1100111 +
1$
#206000000000000
0$
#207000000000000
b1101000 +
1$
#208000000000000
0$
#209000000000000
b1101001 +
1$
#210000000000000
0$
#211000000000000
b1101010 +
1$
#212000000000000
0$
#213000000000000
b1101011 +
1$
#214000000000000
0$
#215000000000000
b1101100 +
1$
#216000000000000
0$
#217000000000000
b1101101 +
1$
#218000000000000
0$
#219000000000000
b1101110 +
1$
#220000000000000
0$
#221000000000000
b1101111 +
1$
#222000000000000
0$
#223000000000000
b1110000 +
1$
#224000000000000
0$
#225000000000000
b1110001 +
1$
#226000000000000
0$
#227000000000000
b1110010 +
1$
#228000000000000
0$
#229000000000000
b1110011 +
1$
#230000000000000
0$
#231000000000000
b1110100 +
1$
#232000000000000
0$
#233000000000000
b1110101 +
1$
#234000000000000
0$
#235000000000000
b1110110 +
1$
#236000000000000
0$
#237000000000000
b1110111 +
1$
#238000000000000
0$
#239000000000000
b1111000 +
1$
#240000000000000
0$
#241000000000000
b1111001 +
1$
#242000000000000
0$
#243000000000000
b1111010 +
1$
#244000000000000
0$
#245000000000000
b1111011 +
1$
#246000000000000
0$
#247000000000000
b1111100 +
1$
#248000000000000
0$
#249000000000000
b1111101 +
1$
#250000000000000
0$
#251000000000000
b1111110 +
1$
#252000000000000
0$
#253000000000000
b1111111 +
1$
#254000000000000
0$
#255000000000000
b0 +
1$
#256000000000000
0$
#257000000000000
b1 +
1$
#258000000000000
0$
#259000000000000
b10 +
1$
#260000000000000
0$
#261000000000000
b11 +
1$
#262000000000000
0$
#263000000000000
b100 +
1$
#264000000000000
0$
#265000000000000
b101 +
1$
#266000000000000
0$
#267000000000000
b110 +
1$
#268000000000000
0$
#269000000000000
b111 +
1$
#270000000000000
0$
#271000000000000
b1000 +
1$
#272000000000000
0$
#273000000000000
b1001 +
1$
#274000000000000
0$
#275000000000000
b1010 +
1$
#276000000000000
0$
#277000000000000
b1011 +
1$
#278000000000000
0$
#279000000000000
b1100 +
1$
#280000000000000
0$
#281000000000000
b1101 +
1$
#282000000000000
0$
#283000000000000
b1110 +
1$
#284000000000000
0$
#285000000000000
b1111 +
1$
#286000000000000
0$
#287000000000000
b10000 +
1$
#288000000000000
0$
#289000000000000
b10001 +
1$
#290000000000000
0$
#291000000000000
b10010 +
1$
#292000000000000
0$
#293000000000000
b10011 +
1$
#294000000000000
0$
#295000000000000
b10100 +
1$
#296000000000000
0$
#297000000000000
b10101 +
1$
#298000000000000
0$
#299000000000000
b10110 +
1$
#300000000000000
0$
#301000000000000
b10111 +
1$
#302000000000000
0$
#303000000000000
b11000 +
1$
#304000000000000
0$
#305000000000000
b11001 +
1$
#306000000000000
0$
#307000000000000
b11010 +
1$
#308000000000000
0$
#309000000000000
b11011 +
1$
#310000000000000
0$
#311000000000000
b11100 +
1$
#312000000000000
0$
#313000000000000
b11101 +
1$
#314000000000000
0$
#315000000000000
b11110 +
1$
#316000000000000
0$
#317000000000000
b11111 +
1$
#318000000000000
0$
#319000000000000
b100000 +
1$
#320000000000000
0$
#321000000000000
b100001 +
1$
#322000000000000
0$
#323000000000000
b100010 +
1$
#324000000000000
0$
#325000000000000
b100011 +
1$
#326000000000000
0$
#327000000000000
b100100 +
1$
#328000000000000
0$
#329000000000000
b100101 +
1$
#330000000000000
0$
#331000000000000
b100110 +
1$
#332000000000000
0$
#333000000000000
b100111 +
1$
#334000000000000
0$
#335000000000000
b101000 +
1$
#336000000000000
0$
#337000000000000
b101001 +
1$
#338000000000000
0$
#339000000000000
b101010 +
1$
#340000000000000
0$
#341000000000000
b101011 +
1$
#342000000000000
0$
#343000000000000
b101100 +
1$
#344000000000000
0$
#345000000000000
b101101 +
1$
#346000000000000
0$
#347000000000000
b101110 +
1$
#348000000000000
0$
#349000000000000
b101111 +
1$
#350000000000000
0$
#351000000000000
b110000 +
1$
#352000000000000
0$
#353000000000000
b110001 +
1$
#354000000000000
0$
#355000000000000
b110010 +
1$
#356000000000000
0$
#357000000000000
b110011 +
1$
#358000000000000
0$
#359000000000000
b110100 +
1$
#360000000000000
0$
#361000000000000
b110101 +
1$
#362000000000000
0$
#363000000000000
b110110 +
1$
#364000000000000
0$
#365000000000000
b110111 +
1$
#366000000000000
0$
#367000000000000
b111000 +
1$
#368000000000000
0$
#369000000000000
b111001 +
1$
#370000000000000
0$
#371000000000000
b111010 +
1$
#372000000000000
0$
#373000000000000
b111011 +
1$
#374000000000000
0$
#375000000000000
b111100 +
1$
#376000000000000
0$
#377000000000000
b111101 +
1$
#378000000000000
0$
#379000000000000
b111110 +
1$
#380000000000000
0$
#381000000000000
b111111 +
1$
#382000000000000
0$
#383000000000000
b1000000 +
1$
#384000000000000
0$
#385000000000000
b1000001 +
1$
#386000000000000
0$
#387000000000000
b1000010 +
1$
#388000000000000
0$
#389000000000000
b1000011 +
1$
#390000000000000
0$
#391000000000000
b1000100 +
1$
#392000000000000
0$
#393000000000000
b1000101 +
1$
#394000000000000
0$
#395000000000000
b1000110 +
1$
#396000000000000
0$
#397000000000000
b1000111 +
1$
#398000000000000
0$
#399000000000000
b1001000 +
1$
#400000000000000
0$
#401000000000000
b1001001 +
1$
#402000000000000
0$
#403000000000000
b1001010 +
1$
#404000000000000
0$
#405000000000000
b1001011 +
1$
#406000000000000
0$
#407000000000000
b1001100 +
1$
#408000000000000
0$
#409000000000000
b1001101 +
1$
#410000000000000
0$
#411000000000000
b1001110 +
1$
#412000000000000
0$
#413000000000000
b1001111 +
1$
#414000000000000
0$
#415000000000000
b1010000 +
1$
#416000000000000
0$
#417000000000000
b1010001 +
1$
#418000000000000
0$
#419000000000000
b1010010 +
1$
#420000000000000
0$
#421000000000000
b1010011 +
1$
#422000000000000
0$
#423000000000000
b1010100 +
1$
#424000000000000
0$
#425000000000000
b1010101 +
1$
#426000000000000
0$
#427000000000000
b1010110 +
1$
#428000000000000
0$
#429000000000000
b1010111 +
1$
#430000000000000
0$
#431000000000000
b1011000 +
1$
#432000000000000
0$
#433000000000000
b1011001 +
1$
#434000000000000
0$
#435000000000000
b1011010 +
1$
#436000000000000
0$
#437000000000000
b1011011 +
1$
#438000000000000
0$
#439000000000000
b1011100 +
1$
#440000000000000
0$
#441000000000000
b1011101 +
1$
#442000000000000
0$
#443000000000000
b1011110 +
1$
#444000000000000
0$
#445000000000000
b1011111 +
1$
#446000000000000
0$
#447000000000000
b1100000 +
1$
#448000000000000
0$
#449000000000000
b1100001 +
1$
#450000000000000
0$
#451000000000000
b1100010 +
1$
#452000000000000
0$
#453000000000000
b1100011 +
1$
#454000000000000
0$
#455000000000000
b1100100 +
1$
#456000000000000
0$
#457000000000000
b1100101 +
1$
#458000000000000
0$
#459000000000000
b1100110 +
1$
#460000000000000
0$
#461000000000000
b1100111 +
1$
#462000000000000
0$
#463000000000000
b1101000 +
1$
#464000000000000
0$
#465000000000000
b1101001 +
1$
#466000000000000
0$
#467000000000000
b1101010 +
1$
#468000000000000
0$
#469000000000000
b1101011 +
1$
#470000000000000
0$
#471000000000000
b1101100 +
1$
#472000000000000
0$
#473000000000000
b1101101 +
1$
#474000000000000
0$
#475000000000000
b1101110 +
1$
#476000000000000
0$
#477000000000000
b1101111 +
1$
#478000000000000
0$
#479000000000000
b1110000 +
1$
#480000000000000
0$
#481000000000000
b1110001 +
1$
#482000000000000
0$
#483000000000000
b1110010 +
1$
#484000000000000
0$
#485000000000000
b1110011 +
1$
#486000000000000
0$
#487000000000000
b1110100 +
1$
#488000000000000
0$
#489000000000000
b1110101 +
1$
#490000000000000
0$
#491000000000000
b1110110 +
1$
#492000000000000
0$
#493000000000000
b1110111 +
1$
#494000000000000
0$
#495000000000000
b1111000 +
1$
#496000000000000
0$
#497000000000000
b1111001 +
1$
#498000000000000
0$
#499000000000000
b1111010 +
1$
#500000000000000
0$
#501000000000000
b1111011 +
1$
#502000000000000
0$
#503000000000000
b1111100 +
1$
#504000000000000
0$
#505000000000000
b1111101 +
1$
#506000000000000
0$
#507000000000000
b1111110 +
1$
#508000000000000
0$
#509000000000000
b1111111 +
1$
#510000000000000
0$
#511000000000000
b0 +
1$
#512000000000000
0$
#513000000000000
b1 +
1$
#514000000000000
0$
#515000000000000
b10 +
1$
#516000000000000
0$
#517000000000000
b11 +
1$
#518000000000000
0$
#519000000000000
b100 +
1$
#520000000000000
0$
#521000000000000
b101 +
1$
#522000000000000
0$
#523000000000000
b110 +
1$
#524000000000000
0$
#525000000000000
b111 +
1$
#526000000000000
0$
#527000000000000
b1000 +
1$
#528000000000000
0$
#529000000000000
b1001 +
1$
#530000000000000
0$
#531000000000000
b1010 +
1$
#532000000000000
0$
#533000000000000
b1011 +
1$
#534000000000000
0$
#535000000000000
b1100 +
1$
#536000000000000
0$
#537000000000000
b1101 +
1$
#538000000000000
0$
#539000000000000
b1110 +
1$
#540000000000000
0$
#541000000000000
b1111 +
1$
#542000000000000
0$
#543000000000000
b10000 +
1$
#544000000000000
0$
#545000000000000
b10001 +
1$
#546000000000000
0$
#547000000000000
b10010 +
1$
#548000000000000
0$
#549000000000000
b10011 +
1$
#550000000000000
0$
#551000000000000
b10100 +
1$
#552000000000000
0$
#553000000000000
b10101 +
1$
#554000000000000
0$
#555000000000000
b10110 +
1$
#556000000000000
0$
#557000000000000
b10111 +
1$
#558000000000000
0$
#559000000000000
b11000 +
1$
#560000000000000
0$
#561000000000000
b11001 +
1$
#562000000000000
0$
#563000000000000
b11010 +
1$
#564000000000000
0$
#565000000000000
b11011 +
1$
#566000000000000
0$
#567000000000000
b11100 +
1$
#568000000000000
0$
#569000000000000
b11101 +
1$
#570000000000000
0$
#571000000000000
b11110 +
1$
#572000000000000
0$
#573000000000000
b11111 +
1$
#574000000000000
0$
#575000000000000
b100000 +
1$
#576000000000000
0$
#577000000000000
b100001 +
1$
#578000000000000
0$
#579000000000000
b100010 +
1$
#580000000000000
0$
#581000000000000
b100011 +
1$
#582000000000000
0$
#583000000000000
b100100 +
1$
#584000000000000
0$
#585000000000000
b100101 +
1$
#586000000000000
0$
#587000000000000
b100110 +
1$
#588000000000000
0$
#589000000000000
b100111 +
1$
#590000000000000
0$
#591000000000000
b101000 +
1$
#592000000000000
0$
#593000000000000
b101001 +
1$
#594000000000000
0$
#595000000000000
b101010 +
1$
#596000000000000
0$
#597000000000000
b101011 +
1$
#598000000000000
0$
#599000000000000
b101100 +
1$
#600000000000000
0$
#601000000000000
b101101 +
1$
#602000000000000
0$
#603000000000000
b101110 +
1$
#604000000000000
0$
#605000000000000
b101111 +
1$
#606000000000000
0$
#607000000000000
b110000 +
1$
#608000000000000
0$
#609000000000000
b110001 +
1$
#610000000000000
0$
#611000000000000
b110010 +
1$
#612000000000000
0$
#613000000000000
b110011 +
1$
#614000000000000
0$
#615000000000000
b110100 +
1$
#616000000000000
0$
#617000000000000
b110101 +
1$
#618000000000000
0$
#619000000000000
b110110 +
1$
#620000000000000
0$
#621000000000000
b110111 +
1$
#622000000000000
0$
#623000000000000
b111000 +
1$
#624000000000000
0$
#625000000000000
b111001 +
1$
#626000000000000
0$
#627000000000000
b111010 +
1$
#628000000000000
0$
#629000000000000
b111011 +
1$
#630000000000000
0$
#631000000000000
b111100 +
1$
#632000000000000
0$
#633000000000000
b111101 +
1$
#634000000000000
0$
#635000000000000
b111110 +
1$
#636000000000000
0$
#637000000000000
b111111 +
1$
#638000000000000
0$
#639000000000000
b1000000 +
1$
#640000000000000
0$
#641000000000000
b1000001 +
1$
#642000000000000
0$
#643000000000000
b1000010 +
1$
#644000000000000
0$
#645000000000000
b1000011 +
1$
#646000000000000
0$
#647000000000000
b1000100 +
1$
#648000000000000
0$
#649000000000000
b1000101 +
1$
#650000000000000
0$
#651000000000000
b1000110 +
1$
#652000000000000
0$
#653000000000000
b1000111 +
1$
#654000000000000
0$
#655000000000000
b1001000 +
1$
#656000000000000
0$
#657000000000000
b1001001 +
1$
#658000000000000
0$
#659000000000000
b1001010 +
1$
#660000000000000
0$
#661000000000000
b1001011 +
1$
#662000000000000
0$
#663000000000000
b1001100 +
1$
#664000000000000
0$
#665000000000000
b1001101 +
1$
#666000000000000
0$
#667000000000000
b1001110 +
1$
#668000000000000
0$
#669000000000000
b1001111 +
1$
#670000000000000
0$
#671000000000000
b1010000 +
1$
#672000000000000
0$
#673000000000000
b1010001 +
1$
#674000000000000
0$
#675000000000000
b1010010 +
1$
#676000000000000
0$
#677000000000000
b1010011 +
1$
#678000000000000
0$
#679000000000000
b1010100 +
1$
#680000000000000
0$
#681000000000000
b1010101 +
1$
#682000000000000
0$
#683000000000000
b1010110 +
1$
#684000000000000
0$
#685000000000000
b1010111 +
1$
#686000000000000
0$
#687000000000000
b1011000 +
1$
#688000000000000
0$
#689000000000000
b1011001 +
1$
#690000000000000
0$
#691000000000000
b1011010 +
1$
#692000000000000
0$
#693000000000000
b1011011 +
1$
#694000000000000
0$
#695000000000000
b1011100 +
1$
#696000000000000
0$
#697000000000000
b1011101 +
1$
#698000000000000
0$
#699000000000000
b1011110 +
1$
#700000000000000
0$
#701000000000000
b1011111 +
1$
#702000000000000
0$
#703000000000000
b1100000 +
1$
#704000000000000
0$
#705000000000000
b1100001 +
1$
#706000000000000
0$
#707000000000000
b1100010 +
1$
#708000000000000
0$
#709000000000000
b1100011 +
1$
#710000000000000
0$
#711000000000000
b1100100 +
1$
#712000000000000
0$
#713000000000000
b1100101 +
1$
#714000000000000
0$
#715000000000000
b1100110 +
1$
#716000000000000
0$
#717000000000000
b1100111 +
1$
#718000000000000
0$
#719000000000000
b1101000 +
1$
#720000000000000
0$
#721000000000000
b1101001 +
1$
#722000000000000
0$
#723000000000000
b1101010 +
1$
#724000000000000
0$
#725000000000000
b1101011 +
1$
#726000000000000
0$
#727000000000000
b1101100 +
1$
#728000000000000
0$
#729000000000000
b1101101 +
1$
#730000000000000
0$
#731000000000000
b1101110 +
1$
#732000000000000
0$
#733000000000000
b1101111 +
1$
#734000000000000
0$
#735000000000000
b1110000 +
1$
#736000000000000
0$
#737000000000000
b1110001 +
1$
#738000000000000
0$
#739000000000000
b1110010 +
1$
#740000000000000
0$
#741000000000000
b1110011 +
1$
#742000000000000
0$
#743000000000000
b1110100 +
1$
#744000000000000
0$
#745000000000000
b1110101 +
1$
#746000000000000
0$
#747000000000000
b1110110 +
1$
#748000000000000
0$
#749000000000000
b1110111 +
1$
#750000000000000
0$
#751000000000000
b1111000 +
1$
#752000000000000
0$
#753000000000000
b1111001 +
1$
#754000000000000
0$
#755000000000000
b1111010 +
1$
#756000000000000
0$
#757000000000000
b1111011 +
1$
#758000000000000
0$
#759000000000000
b1111100 +
1$
#760000000000000
0$
#761000000000000
b1111101 +
1$
#762000000000000
0$
#763000000000000
b1111110 +
1$
#764000000000000
0$
#765000000000000
b1111111 +
1$
#766000000000000
0$
#767000000000000
b0 +
1$
#768000000000000
0$
#769000000000000
b1 +
1$
#770000000000000
0$
#771000000000000
b10 +
1$
#772000000000000
0$
#773000000000000
b11 +
1$
#774000000000000
0$
#775000000000000
b100 +
1$
#776000000000000
0$
#777000000000000
b101 +
1$
#778000000000000
0$
#779000000000000
b110 +
1$
#780000000000000
0$
#781000000000000
b111 +
1$
#782000000000000
0$
#783000000000000
b1000 +
1$
#784000000000000
0$
#785000000000000
b1001 +
1$
#786000000000000
0$
#787000000000000
b1010 +
1$
#788000000000000
0$
#789000000000000
b1011 +
1$
#790000000000000
0$
#791000000000000
b1100 +
1$
#792000000000000
0$
#793000000000000
b1101 +
1$
#794000000000000
0$
#795000000000000
b1110 +
1$
#796000000000000
0$
#797000000000000
b1111 +
1$
#798000000000000
0$
#799000000000000
b10000 +
1$
#800000000000000
0$
#801000000000000
b10001 +
1$
#802000000000000
0$
#803000000000000
b10010 +
1$
#804000000000000
0$
#805000000000000
b10011 +
1$
#806000000000000
0$
#807000000000000
b10100 +
1$
#808000000000000
0$
#809000000000000
b10101 +
1$
#810000000000000
0$
#811000000000000
b10110 +
1$
#812000000000000
0$
#813000000000000
b10111 +
1$
#814000000000000
0$
#815000000000000
b11000 +
1$
#816000000000000
0$
#817000000000000
b11001 +
1$
#818000000000000
0$
#819000000000000
b11010 +
1$
#820000000000000
0$
#821000000000000
b11011 +
1$
#822000000000000
0$
#823000000000000
b11100 +
1$
#824000000000000
0$
#825000000000000
b11101 +
1$
#826000000000000
0$
#827000000000000
b11110 +
1$
#828000000000000
0$
#829000000000000
b11111 +
1$
#830000000000000
0$
#831000000000000
b100000 +
1$
#832000000000000
0$
#833000000000000
b100001 +
1$
#834000000000000
0$
#835000000000000
b100010 +
1$
#836000000000000
0$
#837000000000000
b100011 +
1$
#838000000000000
0$
#839000000000000
b100100 +
1$
#840000000000000
0$
#841000000000000
b100101 +
1$
#842000000000000
0$
#843000000000000
b100110 +
1$
#844000000000000
0$
#845000000000000
b100111 +
1$
#846000000000000
0$
#847000000000000
b101000 +
1$
#848000000000000
0$
#849000000000000
b101001 +
1$
#850000000000000
0$
#851000000000000
b101010 +
1$
#852000000000000
0$
#853000000000000
b101011 +
1$
#854000000000000
0$
#855000000000000
b101100 +
1$
#856000000000000
0$
#857000000000000
b101101 +
1$
#858000000000000
0$
#859000000000000
b101110 +
1$
#860000000000000
0$
#861000000000000
b101111 +
1$
#862000000000000
0$
#863000000000000
b110000 +
1$
#864000000000000
0$
#865000000000000
b110001 +
1$
#866000000000000
0$
#867000000000000
b110010 +
1$
#868000000000000
0$
#869000000000000
b110011 +
1$
#870000000000000
0$
#871000000000000
b110100 +
1$
#872000000000000
0$
#873000000000000
b110101 +
1$
#874000000000000
0$
#875000000000000
b110110 +
1$
#876000000000000
0$
#877000000000000
b110111 +
1$
#878000000000000
0$
#879000000000000
b111000 +
1$
#880000000000000
0$
#881000000000000
b111001 +
1$
#882000000000000
0$
#883000000000000
b111010 +
1$
#884000000000000
0$
#885000000000000
b111011 +
1$
#886000000000000
0$
#887000000000000
b111100 +
1$
#888000000000000
0$
#889000000000000
b111101 +
1$
#890000000000000
0$
#891000000000000
b111110 +
1$
#892000000000000
0$
#893000000000000
b111111 +
1$
#894000000000000
0$
#895000000000000
b1000000 +
1$
#896000000000000
0$
#897000000000000
b1000001 +
1$
#898000000000000
0$
#899000000000000
b1000010 +
1$
#900000000000000
0$
#901000000000000
b1000011 +
1$
#902000000000000
0$
#903000000000000
b1000100 +
1$
#904000000000000
0$
#905000000000000
b1000101 +
1$
#906000000000000
0$
#907000000000000
b1000110 +
1$
#908000000000000
0$
#909000000000000
b1000111 +
1$
#910000000000000
0$
#911000000000000
b1001000 +
1$
#912000000000000
0$
#913000000000000
b1001001 +
1$
#914000000000000
0$
#915000000000000
b1001010 +
1$
#916000000000000
0$
#917000000000000
b1001011 +
1$
#918000000000000
0$
#919000000000000
b1001100 +
1$
#920000000000000
0$
#921000000000000
b1001101 +
1$
#922000000000000
0$
#923000000000000
b1001110 +
1$
#924000000000000
0$
#925000000000000
b1001111 +
1$
#926000000000000
0$
#927000000000000
b1010000 +
1$
#928000000000000
0$
#929000000000000
b1010001 +
1$
#930000000000000
0$
#931000000000000
b1010010 +
1$
#932000000000000
0$
#933000000000000
b1010011 +
1$
#934000000000000
0$
#935000000000000
b1010100 +
1$
#936000000000000
0$
#937000000000000
b1010101 +
1$
#938000000000000
0$
#939000000000000
b1010110 +
1$
#940000000000000
0$
#941000000000000
b1010111 +
1$
#942000000000000
0$
#943000000000000
b1011000 +
1$
#944000000000000
0$
#945000000000000
b1011001 +
1$
#946000000000000
0$
#947000000000000
b1011010 +
1$
#948000000000000
0$
#949000000000000
b1011011 +
1$
#950000000000000
0$
#951000000000000
b1011100 +
1$
#952000000000000
0$
#953000000000000
b1011101 +
1$
#954000000000000
0$
#955000000000000
b1011110 +
1$
#956000000000000
0$
#957000000000000
b1011111 +
1$
#958000000000000
0$
#959000000000000
b1100000 +
1$
#960000000000000
0$
#961000000000000
b1100001 +
1$
#962000000000000
0$
#963000000000000
b1100010 +
1$
#964000000000000
0$
#965000000000000
b1100011 +
1$
#966000000000000
0$
#967000000000000
b1100100 +
1$
#968000000000000
0$
#969000000000000
b1100101 +
1$
#970000000000000
0$
#971000000000000
b1100110 +
1$
#972000000000000
0$
#973000000000000
b1100111 +
1$
#974000000000000
0$
#975000000000000
b1101000 +
1$
#976000000000000
0$
#977000000000000
b1101001 +
1$
#978000000000000
0$
#979000000000000
b1101010 +
1$
#980000000000000
0$
#981000000000000
b1101011 +
1$
#982000000000000
0$
#983000000000000
b1101100 +
1$
#984000000000000
0$
#985000000000000
b1101101 +
1$
#986000000000000
0$
#987000000000000
b1101110 +
1$
#988000000000000
0$
#989000000000000
b1101111 +
1$
#990000000000000
0$
#991000000000000
b1110000 +
1$
#992000000000000
0$
#993000000000000
b1110001 +
1$
#994000000000000
0$
#995000000000000
b1110010 +
1$
#996000000000000
0$
#997000000000000
b1110011 +
1$
#998000000000000
0$
#999000000000000
b1110100 +
1$
#1000000000000000
0$
#1001000000000000
b1110101 +
1$
#1002000000000000
0$
#1003000000000000
b1110110 +
1$
#1004000000000000
0$
#1005000000000000
b1110111 +
1$
#1006000000000000
0$
#1007000000000000
b1111000 +
1$
#1008000000000000
0$
#1009000000000000
b1111001 +
1$
#1010000000000000
0$
#1011000000000000
b1111010 +
1$
#1012000000000000
0$
#1013000000000000
b1111011 +
1$
#1014000000000000
0$
#1015000000000000
b1111100 +
1$
#1016000000000000
0$
#1017000000000000
b1111101 +
1$
#1018000000000000
0$
#1019000000000000
b1111110 +
1$
#1020000000000000
0$
#1021000000000000
b1111111 +
1$
#1022000000000000
0$
#1023000000000000
b0 +
1$
#1024000000000000
0$
#1025000000000000
b1 +
1$
#1026000000000000
0$
#1027000000000000
b10 +
1$
#1028000000000000
0$
#1029000000000000
b11 +
1$
#1030000000000000
0$
#1031000000000000
b100 +
1$
#1032000000000000
0$
#1033000000000000
b101 +
1$
#1034000000000000
0$
#1035000000000000
b110 +
1$
#1036000000000000
0$
#1037000000000000
b111 +
1$
#1038000000000000
0$
#1039000000000000
b1000 +
1$
#1040000000000000
0$
#1041000000000000
b1001 +
1$
#1042000000000000
0$
#1043000000000000
b1010 +
1$
#1044000000000000
0$
#1045000000000000
b1011 +
1$
#1046000000000000
0$
#1047000000000000
b1100 +
1$
#1048000000000000
0$
#1049000000000000
b1101 +
1$
#1050000000000000
0$
#1051000000000000
b1110 +
1$
#1052000000000000
0$
#1053000000000000
b1111 +
1$
#1054000000000000
0$
#1055000000000000
b10000 +
1$
#1056000000000000
0$
#1057000000000000
b10001 +
1$
#1058000000000000
0$
#1059000000000000
b10010 +
1$
#1060000000000000
0$
#1061000000000000
b10011 +
1$
#1062000000000000
0$
#1063000000000000
b10100 +
1$
#1064000000000000
0$
#1065000000000000
b10101 +
1$
#1066000000000000
0$
#1067000000000000
b10110 +
1$
#1068000000000000
0$
#1069000000000000
b10111 +
1$
#1070000000000000
0$
#1071000000000000
b11000 +
1$
#1072000000000000
0$
#1073000000000000
b11001 +
1$
#1074000000000000
0$
#1075000000000000
b11010 +
1$
#1076000000000000
0$
#1077000000000000
b11011 +
1$
#1078000000000000
0$
#1079000000000000
b11100 +
1$
#1080000000000000
0$
#1081000000000000
b11101 +
1$
#1082000000000000
0$
#1083000000000000
b11110 +
1$
#1084000000000000
0$
#1085000000000000
b11111 +
1$
#1086000000000000
0$
#1087000000000000
b100000 +
1$
#1088000000000000
0$
#1089000000000000
b100001 +
1$
#1090000000000000
0$
#1091000000000000
b100010 +
1$
#1092000000000000
0$
#1093000000000000
b100011 +
1$
#1094000000000000
0$
